<mxfile host="app.diagrams.net" modified="2024-03-28T18:17:34.315Z" agent="Mozilla/5.0 (Windows NT 10.0; Win64; x64) AppleWebKit/537.36 (KHTML, like Gecko) Chrome/122.0.0.0 Safari/537.36 OPR/108.0.0.0" etag="RDsk8dtR5y9TBvdZglbP" version="22.1.18" type="device">
  <diagram name="Page-1" id="Dasut3-xQ1xQKSaGspYf">
    <mxGraphModel dx="2282" dy="1883" grid="1" gridSize="10" guides="1" tooltips="1" connect="1" arrows="1" fold="1" page="1" pageScale="1" pageWidth="850" pageHeight="1100" math="0" shadow="0">
      <root>
        <mxCell id="0" />
        <mxCell id="1" parent="0" />
        <mxCell id="gZwKEL9Qmxdx7WXmlIzo-1" value="Korisnik" style="rounded=0;whiteSpace=wrap;html=1;fontSize=16;" vertex="1" parent="1">
          <mxGeometry x="-170" y="190" width="120" height="60" as="geometry" />
        </mxCell>
        <mxCell id="gZwKEL9Qmxdx7WXmlIzo-2" value="Agencija" style="rounded=0;whiteSpace=wrap;html=1;fontSize=16;" vertex="1" parent="1">
          <mxGeometry x="1010" y="190" width="120" height="60" as="geometry" />
        </mxCell>
        <mxCell id="gZwKEL9Qmxdx7WXmlIzo-5" value="P1" style="swimlane;fontStyle=0;childLayout=stackLayout;horizontal=1;startSize=40;horizontalStack=0;resizeParent=1;resizeParentMax=0;resizeLast=0;collapsible=1;marginBottom=0;whiteSpace=wrap;html=1;fontSize=16;rounded=1;" vertex="1" parent="1">
          <mxGeometry x="80" y="40" width="160" height="130" as="geometry" />
        </mxCell>
        <mxCell id="gZwKEL9Qmxdx7WXmlIzo-6" value="Pretraživanje" style="text;strokeColor=none;fillColor=none;align=center;verticalAlign=middle;spacingLeft=4;spacingRight=4;overflow=hidden;points=[[0,0.5],[1,0.5]];portConstraint=eastwest;rotatable=0;whiteSpace=wrap;html=1;fontSize=16;" vertex="1" parent="gZwKEL9Qmxdx7WXmlIzo-5">
          <mxGeometry y="40" width="160" height="90" as="geometry" />
        </mxCell>
        <mxCell id="gZwKEL9Qmxdx7WXmlIzo-10" value="" style="endArrow=classic;html=1;rounded=0;exitX=0.683;exitY=0.017;exitDx=0;exitDy=0;entryX=0;entryY=0.122;entryDx=0;entryDy=0;entryPerimeter=0;exitPerimeter=0;" edge="1" parent="1" source="gZwKEL9Qmxdx7WXmlIzo-1" target="gZwKEL9Qmxdx7WXmlIzo-6">
          <mxGeometry width="50" height="50" relative="1" as="geometry">
            <mxPoint x="400" y="260" as="sourcePoint" />
            <mxPoint x="450" y="210" as="targetPoint" />
          </mxGeometry>
        </mxCell>
        <mxCell id="gZwKEL9Qmxdx7WXmlIzo-12" value="upit pretraživanja" style="edgeLabel;html=1;align=center;verticalAlign=middle;resizable=0;points=[];rotation=-30;" vertex="1" connectable="0" parent="gZwKEL9Qmxdx7WXmlIzo-10">
          <mxGeometry x="-0.4318" y="2" relative="1" as="geometry">
            <mxPoint x="37" y="-35" as="offset" />
          </mxGeometry>
        </mxCell>
        <mxCell id="gZwKEL9Qmxdx7WXmlIzo-11" value="" style="endArrow=classic;html=1;rounded=0;entryX=0.883;entryY=-0.017;entryDx=0;entryDy=0;exitX=-0.012;exitY=0.311;exitDx=0;exitDy=0;exitPerimeter=0;entryPerimeter=0;" edge="1" parent="1" source="gZwKEL9Qmxdx7WXmlIzo-6" target="gZwKEL9Qmxdx7WXmlIzo-1">
          <mxGeometry width="50" height="50" relative="1" as="geometry">
            <mxPoint x="150" y="220" as="sourcePoint" />
            <mxPoint x="86" y="109" as="targetPoint" />
          </mxGeometry>
        </mxCell>
        <mxCell id="gZwKEL9Qmxdx7WXmlIzo-13" value="rezultat pretraživanja" style="edgeLabel;html=1;align=center;verticalAlign=middle;resizable=0;points=[];rotation=-30;" vertex="1" connectable="0" parent="1">
          <mxGeometry x="20.00024271789478" y="150.00459846222404" as="geometry">
            <mxPoint x="-14.892304845413266" y="1.794228634059949" as="offset" />
          </mxGeometry>
        </mxCell>
        <mxCell id="gZwKEL9Qmxdx7WXmlIzo-14" value="P2" style="swimlane;fontStyle=0;childLayout=stackLayout;horizontal=1;startSize=40;horizontalStack=0;resizeParent=1;resizeParentMax=0;resizeLast=0;collapsible=1;marginBottom=0;whiteSpace=wrap;html=1;fontSize=16;rounded=1;" vertex="1" parent="1">
          <mxGeometry x="80" y="270" width="160" height="130" as="geometry" />
        </mxCell>
        <mxCell id="gZwKEL9Qmxdx7WXmlIzo-15" value="Rezervacija" style="text;strokeColor=none;fillColor=none;align=center;verticalAlign=middle;spacingLeft=4;spacingRight=4;overflow=hidden;points=[[0,0.5],[1,0.5]];portConstraint=eastwest;rotatable=0;whiteSpace=wrap;html=1;fontSize=16;" vertex="1" parent="gZwKEL9Qmxdx7WXmlIzo-14">
          <mxGeometry y="40" width="160" height="90" as="geometry" />
        </mxCell>
        <mxCell id="gZwKEL9Qmxdx7WXmlIzo-16" value="" style="endArrow=classic;html=1;rounded=0;exitX=0.9;exitY=1.033;exitDx=0;exitDy=0;entryX=-0.006;entryY=0.222;entryDx=0;entryDy=0;entryPerimeter=0;exitPerimeter=0;" edge="1" parent="1" source="gZwKEL9Qmxdx7WXmlIzo-1" target="gZwKEL9Qmxdx7WXmlIzo-15">
          <mxGeometry width="50" height="50" relative="1" as="geometry">
            <mxPoint x="-100" y="200" as="sourcePoint" />
            <mxPoint x="90" y="101" as="targetPoint" />
          </mxGeometry>
        </mxCell>
        <mxCell id="gZwKEL9Qmxdx7WXmlIzo-17" value="upit pretraživanja" style="edgeLabel;html=1;align=center;verticalAlign=middle;resizable=0;points=[];rotation=30;" vertex="1" connectable="0" parent="gZwKEL9Qmxdx7WXmlIzo-16">
          <mxGeometry x="-0.4318" y="2" relative="1" as="geometry">
            <mxPoint x="31" y="8" as="offset" />
          </mxGeometry>
        </mxCell>
        <mxCell id="gZwKEL9Qmxdx7WXmlIzo-18" value="" style="endArrow=classic;html=1;rounded=0;entryX=0.683;entryY=1.05;entryDx=0;entryDy=0;exitX=-0.012;exitY=0.389;exitDx=0;exitDy=0;exitPerimeter=0;entryPerimeter=0;" edge="1" parent="1" source="gZwKEL9Qmxdx7WXmlIzo-15" target="gZwKEL9Qmxdx7WXmlIzo-1">
          <mxGeometry width="50" height="50" relative="1" as="geometry">
            <mxPoint x="88" y="118" as="sourcePoint" />
            <mxPoint x="-54" y="199" as="targetPoint" />
          </mxGeometry>
        </mxCell>
        <mxCell id="gZwKEL9Qmxdx7WXmlIzo-21" value="rezultat pretraživanja" style="edgeLabel;html=1;align=center;verticalAlign=middle;resizable=0;points=[];rotation=30;" vertex="1" connectable="0" parent="gZwKEL9Qmxdx7WXmlIzo-18">
          <mxGeometry x="-0.2862" y="-2" relative="1" as="geometry">
            <mxPoint x="-20" as="offset" />
          </mxGeometry>
        </mxCell>
        <mxCell id="gZwKEL9Qmxdx7WXmlIzo-22" value="P3" style="swimlane;fontStyle=0;childLayout=stackLayout;horizontal=1;startSize=40;horizontalStack=0;resizeParent=1;resizeParentMax=0;resizeLast=0;collapsible=1;marginBottom=0;whiteSpace=wrap;html=1;fontSize=16;rounded=1;" vertex="1" parent="1">
          <mxGeometry x="730" y="70" width="120" height="90" as="geometry" />
        </mxCell>
        <mxCell id="gZwKEL9Qmxdx7WXmlIzo-23" value="Dodavanje ponude" style="text;strokeColor=none;fillColor=none;align=center;verticalAlign=middle;spacingLeft=4;spacingRight=4;overflow=hidden;points=[[0,0.5],[1,0.5]];portConstraint=eastwest;rotatable=0;whiteSpace=wrap;html=1;fontSize=16;" vertex="1" parent="gZwKEL9Qmxdx7WXmlIzo-22">
          <mxGeometry y="40" width="120" height="50" as="geometry" />
        </mxCell>
        <mxCell id="gZwKEL9Qmxdx7WXmlIzo-26" value="P4" style="swimlane;fontStyle=0;childLayout=stackLayout;horizontal=1;startSize=40;horizontalStack=0;resizeParent=1;resizeParentMax=0;resizeLast=0;collapsible=1;marginBottom=0;whiteSpace=wrap;html=1;fontSize=16;rounded=1;" vertex="1" parent="1">
          <mxGeometry x="730" y="175" width="120" height="90" as="geometry" />
        </mxCell>
        <mxCell id="gZwKEL9Qmxdx7WXmlIzo-27" value="Ažuriranje ponude" style="text;strokeColor=none;fillColor=none;align=center;verticalAlign=middle;spacingLeft=4;spacingRight=4;overflow=hidden;points=[[0,0.5],[1,0.5]];portConstraint=eastwest;rotatable=0;whiteSpace=wrap;html=1;fontSize=16;" vertex="1" parent="gZwKEL9Qmxdx7WXmlIzo-26">
          <mxGeometry y="40" width="120" height="50" as="geometry" />
        </mxCell>
        <mxCell id="gZwKEL9Qmxdx7WXmlIzo-28" value="P5" style="swimlane;fontStyle=0;childLayout=stackLayout;horizontal=1;startSize=40;horizontalStack=0;resizeParent=1;resizeParentMax=0;resizeLast=0;collapsible=1;marginBottom=0;whiteSpace=wrap;html=1;fontSize=16;rounded=1;" vertex="1" parent="1">
          <mxGeometry x="730" y="280" width="120" height="90" as="geometry" />
        </mxCell>
        <mxCell id="gZwKEL9Qmxdx7WXmlIzo-29" value="Brisanje ponude" style="text;strokeColor=none;fillColor=none;align=center;verticalAlign=middle;spacingLeft=4;spacingRight=4;overflow=hidden;points=[[0,0.5],[1,0.5]];portConstraint=eastwest;rotatable=0;whiteSpace=wrap;html=1;fontSize=16;" vertex="1" parent="gZwKEL9Qmxdx7WXmlIzo-28">
          <mxGeometry y="40" width="120" height="50" as="geometry" />
        </mxCell>
        <mxCell id="gZwKEL9Qmxdx7WXmlIzo-30" value="" style="endArrow=classic;html=1;rounded=0;exitX=0.383;exitY=0;exitDx=0;exitDy=0;exitPerimeter=0;entryX=0.983;entryY=0.02;entryDx=0;entryDy=0;entryPerimeter=0;verticalAlign=top;" edge="1" parent="1" source="gZwKEL9Qmxdx7WXmlIzo-2" target="gZwKEL9Qmxdx7WXmlIzo-23">
          <mxGeometry x="0.1425" y="-36" width="50" height="50" relative="1" as="geometry">
            <mxPoint x="1070.95" y="120" as="sourcePoint" />
            <mxPoint x="880" y="120" as="targetPoint" />
            <Array as="points" />
            <mxPoint as="offset" />
          </mxGeometry>
        </mxCell>
        <mxCell id="gZwKEL9Qmxdx7WXmlIzo-31" value="" style="endArrow=classic;html=1;rounded=0;exitX=1.017;exitY=0.3;exitDx=0;exitDy=0;exitPerimeter=0;entryX=0.158;entryY=0;entryDx=0;entryDy=0;entryPerimeter=0;" edge="1" parent="1" source="gZwKEL9Qmxdx7WXmlIzo-23" target="gZwKEL9Qmxdx7WXmlIzo-2">
          <mxGeometry x="0.0526" y="-10" width="50" height="50" relative="1" as="geometry">
            <mxPoint x="880" y="129.01999999999998" as="sourcePoint" />
            <mxPoint x="1070" y="129" as="targetPoint" />
            <Array as="points" />
            <mxPoint as="offset" />
          </mxGeometry>
        </mxCell>
        <mxCell id="gZwKEL9Qmxdx7WXmlIzo-32" value="" style="endArrow=classic;html=1;rounded=0;exitX=-0.017;exitY=0.4;exitDx=0;exitDy=0;exitPerimeter=0;" edge="1" parent="1" source="gZwKEL9Qmxdx7WXmlIzo-2">
          <mxGeometry width="50" height="50" relative="1" as="geometry">
            <mxPoint x="990" y="210" as="sourcePoint" />
            <mxPoint x="850" y="214" as="targetPoint" />
          </mxGeometry>
        </mxCell>
        <mxCell id="gZwKEL9Qmxdx7WXmlIzo-33" value="" style="endArrow=classic;html=1;rounded=0;entryX=-0.008;entryY=0.633;entryDx=0;entryDy=0;entryPerimeter=0;exitX=1.008;exitY=0.26;exitDx=0;exitDy=0;exitPerimeter=0;" edge="1" parent="1" source="gZwKEL9Qmxdx7WXmlIzo-27" target="gZwKEL9Qmxdx7WXmlIzo-2">
          <mxGeometry width="50" height="50" relative="1" as="geometry">
            <mxPoint x="870" y="230" as="sourcePoint" />
            <mxPoint x="780" y="210" as="targetPoint" />
          </mxGeometry>
        </mxCell>
        <mxCell id="gZwKEL9Qmxdx7WXmlIzo-34" value="" style="endArrow=classic;html=1;rounded=0;entryX=1;entryY=0.25;entryDx=0;entryDy=0;exitX=0.117;exitY=1.033;exitDx=0;exitDy=0;exitPerimeter=0;" edge="1" parent="1" source="gZwKEL9Qmxdx7WXmlIzo-2" target="gZwKEL9Qmxdx7WXmlIzo-28">
          <mxGeometry width="50" height="50" relative="1" as="geometry">
            <mxPoint x="730" y="260" as="sourcePoint" />
            <mxPoint x="780" y="210" as="targetPoint" />
          </mxGeometry>
        </mxCell>
        <mxCell id="gZwKEL9Qmxdx7WXmlIzo-35" value="" style="endArrow=classic;html=1;rounded=0;exitX=1.017;exitY=0.378;exitDx=0;exitDy=0;exitPerimeter=0;" edge="1" parent="1" source="gZwKEL9Qmxdx7WXmlIzo-28">
          <mxGeometry width="50" height="50" relative="1" as="geometry">
            <mxPoint x="850" y="324" as="sourcePoint" />
            <mxPoint x="1060" y="250" as="targetPoint" />
          </mxGeometry>
        </mxCell>
        <mxCell id="gZwKEL9Qmxdx7WXmlIzo-39" value="nova ponuda" style="text;html=1;strokeColor=none;fillColor=none;align=center;verticalAlign=middle;whiteSpace=wrap;rounded=0;rotation=20;" vertex="1" parent="1">
          <mxGeometry x="920" y="130" width="80" height="30" as="geometry" />
        </mxCell>
        <mxCell id="gZwKEL9Qmxdx7WXmlIzo-44" value="izmjenjena ponuda" style="text;html=1;strokeColor=none;fillColor=none;align=center;verticalAlign=middle;whiteSpace=wrap;rounded=0;rotation=0;" vertex="1" parent="1">
          <mxGeometry x="880" y="200" width="120" height="10" as="geometry" />
        </mxCell>
        <mxCell id="gZwKEL9Qmxdx7WXmlIzo-45" value="zahtjev za brisanje" style="text;html=1;strokeColor=none;fillColor=none;align=center;verticalAlign=middle;whiteSpace=wrap;rounded=0;rotation=-15;" vertex="1" parent="1">
          <mxGeometry x="870" y="265" width="120" height="10" as="geometry" />
        </mxCell>
        <mxCell id="gZwKEL9Qmxdx7WXmlIzo-46" value="odgovor" style="text;html=1;strokeColor=none;fillColor=none;align=center;verticalAlign=middle;whiteSpace=wrap;rounded=0;rotation=-15;" vertex="1" parent="1">
          <mxGeometry x="890" y="290" width="120" height="10" as="geometry" />
        </mxCell>
        <mxCell id="gZwKEL9Qmxdx7WXmlIzo-47" value="odgovor" style="text;html=1;strokeColor=none;fillColor=none;align=center;verticalAlign=middle;whiteSpace=wrap;rounded=0;rotation=0;" vertex="1" parent="1">
          <mxGeometry x="880" y="230" width="120" height="10" as="geometry" />
        </mxCell>
        <mxCell id="gZwKEL9Qmxdx7WXmlIzo-48" value="odgovor" style="text;html=1;strokeColor=none;fillColor=none;align=center;verticalAlign=middle;whiteSpace=wrap;rounded=0;rotation=15;" vertex="1" parent="1">
          <mxGeometry x="870" y="160" width="120" height="10" as="geometry" />
        </mxCell>
        <mxCell id="gZwKEL9Qmxdx7WXmlIzo-49" value="" style="endArrow=classic;html=1;rounded=0;exitX=0.75;exitY=0;exitDx=0;exitDy=0;entryX=0.988;entryY=0.146;entryDx=0;entryDy=0;entryPerimeter=0;" edge="1" parent="1" source="gZwKEL9Qmxdx7WXmlIzo-2" target="gZwKEL9Qmxdx7WXmlIzo-5">
          <mxGeometry width="50" height="50" relative="1" as="geometry">
            <mxPoint x="520" y="260" as="sourcePoint" />
            <mxPoint x="290" y="40" as="targetPoint" />
            <Array as="points">
              <mxPoint x="1040" y="20" />
              <mxPoint x="560" />
            </Array>
          </mxGeometry>
        </mxCell>
        <mxCell id="gZwKEL9Qmxdx7WXmlIzo-50" value="upit pretraživanja" style="text;html=1;strokeColor=none;fillColor=none;align=center;verticalAlign=middle;whiteSpace=wrap;rounded=0;rotation=0;" vertex="1" parent="1">
          <mxGeometry x="500" y="-10" width="120" as="geometry" />
        </mxCell>
        <mxCell id="gZwKEL9Qmxdx7WXmlIzo-51" value="" style="endArrow=classic;html=1;rounded=0;exitX=1;exitY=0.208;exitDx=0;exitDy=0;exitPerimeter=0;entryX=0.625;entryY=0;entryDx=0;entryDy=0;entryPerimeter=0;" edge="1" parent="1" source="gZwKEL9Qmxdx7WXmlIzo-5" target="gZwKEL9Qmxdx7WXmlIzo-2">
          <mxGeometry width="50" height="50" relative="1" as="geometry">
            <mxPoint x="520" y="260" as="sourcePoint" />
            <mxPoint x="570" y="210" as="targetPoint" />
            <Array as="points">
              <mxPoint x="560" y="20" />
              <mxPoint x="1030" y="40" />
            </Array>
          </mxGeometry>
        </mxCell>
        <mxCell id="gZwKEL9Qmxdx7WXmlIzo-52" value="rezultat pretraživanja" style="text;html=1;strokeColor=none;fillColor=none;align=center;verticalAlign=middle;whiteSpace=wrap;rounded=0;rotation=0;" vertex="1" parent="1">
          <mxGeometry x="500" y="40" width="120" as="geometry" />
        </mxCell>
        <mxCell id="gZwKEL9Qmxdx7WXmlIzo-62" value="D1&amp;nbsp; &amp;nbsp; &amp;nbsp;Ponude" style="rounded=0;whiteSpace=wrap;html=1;fontSize=16;" vertex="1" parent="1">
          <mxGeometry x="420" y="200" width="120" height="40" as="geometry" />
        </mxCell>
        <mxCell id="gZwKEL9Qmxdx7WXmlIzo-63" value="" style="endArrow=classic;html=1;rounded=0;exitX=0;exitY=0;exitDx=0;exitDy=0;entryX=1.006;entryY=0.789;entryDx=0;entryDy=0;entryPerimeter=0;" edge="1" parent="1" source="gZwKEL9Qmxdx7WXmlIzo-62" target="gZwKEL9Qmxdx7WXmlIzo-6">
          <mxGeometry width="50" height="50" relative="1" as="geometry">
            <mxPoint x="520" y="260" as="sourcePoint" />
            <mxPoint x="270" y="170" as="targetPoint" />
          </mxGeometry>
        </mxCell>
        <mxCell id="gZwKEL9Qmxdx7WXmlIzo-64" value="" style="endArrow=classic;html=1;rounded=0;exitX=1;exitY=0.611;exitDx=0;exitDy=0;exitPerimeter=0;entryX=0.367;entryY=-0.025;entryDx=0;entryDy=0;entryPerimeter=0;" edge="1" parent="1" source="gZwKEL9Qmxdx7WXmlIzo-6" target="gZwKEL9Qmxdx7WXmlIzo-62">
          <mxGeometry width="50" height="50" relative="1" as="geometry">
            <mxPoint x="239.03999999999996" y="115.99999999999999" as="sourcePoint" />
            <mxPoint x="450" y="180" as="targetPoint" />
          </mxGeometry>
        </mxCell>
        <mxCell id="gZwKEL9Qmxdx7WXmlIzo-67" value="rezultat pretraživanja" style="text;html=1;strokeColor=none;fillColor=none;align=center;verticalAlign=middle;whiteSpace=wrap;rounded=0;rotation=15;" vertex="1" parent="1">
          <mxGeometry x="270" y="180" width="120" height="10" as="geometry" />
        </mxCell>
        <mxCell id="gZwKEL9Qmxdx7WXmlIzo-68" value="upit pretraživanja" style="text;html=1;strokeColor=none;fillColor=none;align=center;verticalAlign=middle;whiteSpace=wrap;rounded=0;rotation=15;" vertex="1" parent="1">
          <mxGeometry x="280" y="150" width="120" height="10" as="geometry" />
        </mxCell>
        <mxCell id="gZwKEL9Qmxdx7WXmlIzo-71" value="" style="endArrow=classic;html=1;rounded=0;exitX=1;exitY=0.25;exitDx=0;exitDy=0;entryX=0.167;entryY=1;entryDx=0;entryDy=0;entryPerimeter=0;" edge="1" parent="1" source="gZwKEL9Qmxdx7WXmlIzo-14" target="gZwKEL9Qmxdx7WXmlIzo-62">
          <mxGeometry width="50" height="50" relative="1" as="geometry">
            <mxPoint x="520" y="260" as="sourcePoint" />
            <mxPoint x="570" y="210" as="targetPoint" />
          </mxGeometry>
        </mxCell>
        <mxCell id="gZwKEL9Qmxdx7WXmlIzo-72" value="" style="endArrow=classic;html=1;rounded=0;entryX=1.006;entryY=0.033;entryDx=0;entryDy=0;entryPerimeter=0;exitX=0.375;exitY=1.05;exitDx=0;exitDy=0;exitPerimeter=0;" edge="1" parent="1" source="gZwKEL9Qmxdx7WXmlIzo-62" target="gZwKEL9Qmxdx7WXmlIzo-15">
          <mxGeometry width="50" height="50" relative="1" as="geometry">
            <mxPoint x="470" y="270" as="sourcePoint" />
            <mxPoint x="340" y="330" as="targetPoint" />
          </mxGeometry>
        </mxCell>
        <mxCell id="gZwKEL9Qmxdx7WXmlIzo-73" value="ID ponude" style="text;html=1;strokeColor=none;fillColor=none;align=center;verticalAlign=middle;whiteSpace=wrap;rounded=0;rotation=-15;" vertex="1" parent="1">
          <mxGeometry x="280" y="255" width="120" height="10" as="geometry" />
        </mxCell>
        <mxCell id="gZwKEL9Qmxdx7WXmlIzo-76" value="broj slobodnih karata" style="text;html=1;strokeColor=none;fillColor=none;align=center;verticalAlign=middle;whiteSpace=wrap;rounded=0;rotation=-15;" vertex="1" parent="1">
          <mxGeometry x="300" y="280" width="120" height="10" as="geometry" />
        </mxCell>
        <mxCell id="gZwKEL9Qmxdx7WXmlIzo-77" value="" style="endArrow=classic;html=1;rounded=0;exitX=0;exitY=-0.08;exitDx=0;exitDy=0;exitPerimeter=0;entryX=0.675;entryY=0.025;entryDx=0;entryDy=0;entryPerimeter=0;" edge="1" parent="1" source="gZwKEL9Qmxdx7WXmlIzo-23" target="gZwKEL9Qmxdx7WXmlIzo-62">
          <mxGeometry width="50" height="50" relative="1" as="geometry">
            <mxPoint x="520" y="260" as="sourcePoint" />
            <mxPoint x="570" y="210" as="targetPoint" />
          </mxGeometry>
        </mxCell>
        <mxCell id="gZwKEL9Qmxdx7WXmlIzo-79" value="" style="endArrow=classic;html=1;rounded=0;entryX=1;entryY=0.25;entryDx=0;entryDy=0;exitX=0;exitY=0.378;exitDx=0;exitDy=0;exitPerimeter=0;" edge="1" parent="1" source="gZwKEL9Qmxdx7WXmlIzo-26" target="gZwKEL9Qmxdx7WXmlIzo-62">
          <mxGeometry width="50" height="50" relative="1" as="geometry">
            <mxPoint x="520" y="260" as="sourcePoint" />
            <mxPoint x="570" y="210" as="targetPoint" />
          </mxGeometry>
        </mxCell>
        <mxCell id="gZwKEL9Qmxdx7WXmlIzo-81" value="" style="endArrow=classic;html=1;rounded=0;exitX=0;exitY=0.25;exitDx=0;exitDy=0;entryX=1;entryY=1;entryDx=0;entryDy=0;" edge="1" parent="1" source="gZwKEL9Qmxdx7WXmlIzo-28" target="gZwKEL9Qmxdx7WXmlIzo-62">
          <mxGeometry width="50" height="50" relative="1" as="geometry">
            <mxPoint x="520" y="260" as="sourcePoint" />
            <mxPoint x="570" y="210" as="targetPoint" />
          </mxGeometry>
        </mxCell>
        <mxCell id="gZwKEL9Qmxdx7WXmlIzo-83" value="nova ponuda" style="text;html=1;strokeColor=none;fillColor=none;align=center;verticalAlign=middle;whiteSpace=wrap;rounded=0;rotation=-25;" vertex="1" parent="1">
          <mxGeometry x="568.59" y="123.66" width="110" height="30" as="geometry" />
        </mxCell>
        <mxCell id="gZwKEL9Qmxdx7WXmlIzo-84" value="izmjenjena ponuda" style="text;html=1;strokeColor=none;fillColor=none;align=center;verticalAlign=middle;whiteSpace=wrap;rounded=0;rotation=0;" vertex="1" parent="1">
          <mxGeometry x="590" y="180" width="120" height="30" as="geometry" />
        </mxCell>
        <mxCell id="gZwKEL9Qmxdx7WXmlIzo-85" value="upit za brisanje" style="text;html=1;strokeColor=none;fillColor=none;align=center;verticalAlign=middle;whiteSpace=wrap;rounded=0;rotation=15;" vertex="1" parent="1">
          <mxGeometry x="589.83" y="271.29" width="90" height="30" as="geometry" />
        </mxCell>
        <mxCell id="gZwKEL9Qmxdx7WXmlIzo-86" value="" style="endArrow=none;html=1;rounded=0;entryX=0.333;entryY=0;entryDx=0;entryDy=0;entryPerimeter=0;" edge="1" parent="1" target="gZwKEL9Qmxdx7WXmlIzo-62">
          <mxGeometry width="50" height="50" relative="1" as="geometry">
            <mxPoint x="460" y="240" as="sourcePoint" />
            <mxPoint x="570" y="210" as="targetPoint" />
          </mxGeometry>
        </mxCell>
      </root>
    </mxGraphModel>
  </diagram>
</mxfile>
